{
  "kind": "collectionType",
  "collectionName": "categories",
  "info": {
    "name": "category"
  },
  "options": {
    "increments": true,
    "timestamps": true
  },
  "attributes": {
    "name": {
      "type": "string"
    },
    "restaurants": {
      "collection": "restaurant",
      "via": "categories",
      "dominant": true
    }
  }
}
